
define VDD ( N__0 ) 
parameters  Vdd=1.8 
V_Source:SRC1  N__0 0 Type="V_DC" Vdc=Vdd SaveCurrent=0 
end VDD

define OPAMP_v2_cleaned ( inp  inm  outp  outm ) 
VDD:I__16  N__88 Vdd=3.3 V 
VDD:Vdd9  N__0 Vdd=3.3 V 

"n_33_mm":Mcmfbbias3  N__30 N__30 0 0 Length=Lcmfb Width=WoLcmfb*Lcmfb Ad=2*hdif*WoLcmfb*Lcmfb As=2*hdif*WoLcmfb*Lcmfb Pd=4*hdif+2*WoLcmfb*Lcmfb Ps=4*hdif+2*WoLcmfb*Lcmfb Mode=1 Noise=yes _M=Mult_cmfbbias 
"n_33_mm":Mout  outm N__32 0 0 Length=Lout Width=WoLout*Lout Ad=2*hdif*WoLout*Lout As=2*hdif*WoLout*Lout Pd=4*hdif+2*WoLout*Lout Ps=4*hdif+2*WoLout*Lout Mode=1 Noise=yes _M=Mult_out 
"p_33_mm":Mload  outm biasout N__88 N__88 Length=Lout Width=WoLload*Lout Ad=2*hdif*WoLload*Lout As=2*hdif*WoLload*Lout Pd=4*hdif+2*WoLload*Lout Ps=4*hdif+2*WoLload*Lout Mode=1 Noise=yes _M=Mult_out 
"p_33_mm":Min1  N__9 inp N__11 N__11 Length=Lin Width=WoLin*Lin Ad=2*hdif*WoLin*Lin As=2*hdif*WoLin*Lin Pd=4*hdif+2*WoLin*Lin Ps=4*hdif+2*WoLin*Lin Mode=1 Noise=yes _M=Mult_in 
"p_33_mm":Min  N__13 inm N__11 N__11 Length=Lin Width=WoLin*Lin Ad=2*hdif*WoLin*Lin As=2*hdif*WoLin*Lin Pd=4*hdif+2*WoLin*Lin Ps=4*hdif+2*WoLin*Lin Mode=1 Noise=yes _M=Mult_in 
"p_33_mm":Mtop  N__11 biastop N__88 N__88 Length=Ltop Width=WoLtop*Ltop Ad=2*hdif*WoLtop*Ltop As=2*hdif*WoLtop*Ltop Pd=4*hdif+2*WoLtop*Ltop Ps=4*hdif+2*WoLtop*Ltop Mode=1 Noise=yes _M=Mult_top 
"p_33_mm":Mmirr  N__21 cmfb N__88 N__88 Length=Lmirr Width=WoLmirr*Lmirr Ad=2*hdif*WoLmirr*Lmirr As=2*hdif*WoLmirr*Lmirr Pd=4*hdif+2*WoLmirr*Lmirr Ps=4*hdif+2*WoLmirr*Lmirr Mode=1 Noise=yes _M=Mult_mirr 
"p_33_mm":Mcasctop  intm biascasctop N__21 N__88 Length=Lcasctop Width=WoLcasctop*Lcasctop Ad=2*hdif*WoLcasctop*Lcasctop As=2*hdif*WoLcasctop*Lcasctop Pd=4*hdif+2*WoLcasctop*Lcasctop Ps=4*hdif+2*WoLcasctop*Lcasctop Mode=1 Noise=yes _M=Mult_casctop 
"n_33_mm":Mcasc  intm biascasc N__13 0 Length=Lcasc Width=WoLcasc*Lcasc Ad=2*hdif*WoLcasc*Lcasc As=2*hdif*WoLcasc*Lcasc Pd=4*hdif+2*WoLcasc*Lcasc Ps=4*hdif+2*WoLcasc*Lcasc Mode=1 Noise=yes _M=Mult_casc 
"n_33_mm":Mbot  N__13 biasbot 0 0 Length=Lbot Width=WoLbot*Lbot Ad=2*hdif*WoLbot*Lbot As=2*hdif*WoLbot*Lbot Pd=4*hdif+2*WoLbot*Lbot Ps=4*hdif+2*WoLbot*Lbot Mode=1 Noise=yes _M=Mult_bot 
"n_33_mm":Mshift  N__88 intm N__32 0 Length=Lshift Width=WoLshift*Lshift Ad=2*hdif*WoLshift*Lshift As=2*hdif*WoLshift*Lshift Pd=4*hdif+2*WoLshift*Lshift Ps=4*hdif+2*WoLshift*Lshift Mode=1 Noise=yes _M=Mult_shift 
"n_33_mm":Mshiftbias  N__32 biasshift 0 0 Length=Lshift Width=WoLshiftbias*Lshift Ad=2*hdif*WoLshiftbias*Lshift As=2*hdif*WoLshiftbias*Lshift Pd=4*hdif+2*WoLshiftbias*Lshift Ps=4*hdif+2*WoLshiftbias*Lshift Mode=1 Noise=yes _M=Mult_shiftbias 
"n_33_mm":Mbot1  N__9 biasbot 0 0 Length=Lbot Width=WoLbot*Lbot Ad=2*hdif*WoLbot*Lbot As=2*hdif*WoLbot*Lbot Pd=4*hdif+2*WoLbot*Lbot Ps=4*hdif+2*WoLbot*Lbot Mode=1 Noise=yes _M=Mult_bot 
"n_33_mm":Mcasc1  intp biascasc N__9 0 Length=Lcasc Width=WoLcasc*Lcasc Ad=2*hdif*WoLcasc*Lcasc As=2*hdif*WoLcasc*Lcasc Pd=4*hdif+2*WoLcasc*Lcasc Ps=4*hdif+2*WoLcasc*Lcasc Mode=1 Noise=yes _M=Mult_casc 
"n_33_mm":Mshiftbias1  N__33 biasshift 0 0 Length=Lshift Width=WoLshiftbias*Lshift Ad=2*hdif*WoLshiftbias*Lshift As=2*hdif*WoLshiftbias*Lshift Pd=4*hdif+2*WoLshiftbias*Lshift Ps=4*hdif+2*WoLshiftbias*Lshift Mode=1 Noise=yes _M=Mult_shiftbias 
"n_33_mm":Mshift1  N__88 intp N__33 0 Length=Lshift Width=WoLshift*Lshift Ad=2*hdif*WoLshift*Lshift As=2*hdif*WoLshift*Lshift Pd=4*hdif+2*WoLshift*Lshift Ps=4*hdif+2*WoLshift*Lshift Mode=1 Noise=yes _M=Mult_shift 
"n_33_mm":Mout1  outp N__33 0 0 Length=Lout Width=WoLout*Lout Ad=2*hdif*WoLout*Lout As=2*hdif*WoLout*Lout Pd=4*hdif+2*WoLout*Lout Ps=4*hdif+2*WoLout*Lout Mode=1 Noise=yes _M=Mult_out 
"p_33_mm":Mcasctop1  intp biascasctop N__15 N__88 Length=Lcasctop Width=WoLcasctop*Lcasctop Ad=2*hdif*WoLcasctop*Lcasctop As=2*hdif*WoLcasctop*Lcasctop Pd=4*hdif+2*WoLcasctop*Lcasctop Ps=4*hdif+2*WoLcasctop*Lcasctop Mode=1 Noise=yes _M=Mult_casctop 
"p_33_mm":Mmirr1  N__15 cmfb N__88 N__88 Length=Lmirr Width=WoLmirr*Lmirr Ad=2*hdif*WoLmirr*Lmirr As=2*hdif*WoLmirr*Lmirr Pd=4*hdif+2*WoLmirr*Lmirr Ps=4*hdif+2*WoLmirr*Lmirr Mode=1 Noise=yes _M=Mult_mirr 
"p_33_mm":Mload1  outp biasout N__88 N__88 Length=Lout Width=WoLload*Lout Ad=2*hdif*WoLload*Lout As=2*hdif*WoLload*Lout Pd=4*hdif+2*WoLload*Lout Ps=4*hdif+2*WoLload*Lout Mode=1 Noise=yes _M=Mult_out 
"n_33_mm":Mcasc2  biascasctop biascasc N__35 0 Length=Lcasc Width=WoLcasc*Lcasc Ad=2*hdif*WoLcasc*Lcasc As=2*hdif*WoLcasc*Lcasc Pd=4*hdif+2*WoLcasc*Lcasc Ps=4*hdif+2*WoLcasc*Lcasc Mode=1 Noise=yes _M=Mult_casc 
"n_33_mm":Mbot2  N__35 biasbot 0 0 Length=Lbot Width=WoLbot*Lbot Ad=2*hdif*WoLbot*Lbot As=2*hdif*WoLbot*Lbot Pd=4*hdif+2*WoLbot*Lbot Ps=4*hdif+2*WoLbot*Lbot Mode=1 Noise=yes _M=Mult_bot 
V_Source:SRC30  N__88 N__34 Type="V_DC" Vdc=0.5 V SaveCurrent=1 
"p_33_mm":Mcasctop2  biascasctop biascasctop N__34 N__88 Length=Lcasctop Width=WoLcasctop*Lcasctop Ad=2*hdif*WoLcasctop*Lcasctop As=2*hdif*WoLcasctop*Lcasctop Pd=4*hdif+2*WoLcasctop*Lcasctop Ps=4*hdif+2*WoLcasctop*Lcasctop Mode=1 Noise=yes _M=Mult_casctop 
"n_33_mm":Mcasc3  biasbot biascasc N__2 0 Length=Lcasc Width=WoLcasc*Lcasc Ad=2*hdif*WoLcasc*Lcasc As=2*hdif*WoLcasc*Lcasc Pd=4*hdif+2*WoLcasc*Lcasc Ps=4*hdif+2*WoLcasc*Lcasc Mode=1 Noise=yes _M=Mult_casc 
"n_33_mm":Mbot3  N__2 biasbot 0 0 Length=Lbot Width=WoLbot*Lbot Ad=2*hdif*WoLbot*Lbot As=2*hdif*WoLbot*Lbot Pd=4*hdif+2*WoLbot*Lbot Ps=4*hdif+2*WoLbot*Lbot Mode=1 Noise=yes _M=Mult_bot 
V_Source:SRC29  N__31 0 Type="V_DC" Vdc=0.5 V SaveCurrent=1 
"n_33_mm":Mcasc4  biascasc biascasc N__31 0 Length=Lcasc Width=WoLcasc*Lcasc Ad=2*hdif*WoLcasc*Lcasc As=2*hdif*WoLcasc*Lcasc Pd=4*hdif+2*WoLcasc*Lcasc Ps=4*hdif+2*WoLcasc*Lcasc Mode=1 Noise=yes _M=Mult_casc 
I_Source:SRC1  N__88 biascasc Type="I_DC" Idc=Icasc 
I_Source:SRC2  N__88 biasbot Type="I_DC" Idc=Icasc 
"p_33_mm":Mload2  biasout biasout N__88 N__88 Length=Lout Width=WoLload*Lout Ad=2*hdif*WoLload*Lout As=2*hdif*WoLload*Lout Pd=4*hdif+2*WoLload*Lout Ps=4*hdif+2*WoLload*Lout Mode=1 Noise=yes _M=Mult_out 
I_Source:SRC3  biasout 0 Type="I_DC" Idc=Iout 
"p_33_mm":Mtop1  biastop biastop N__88 N__88 Length=Ltop Width=WoLtop*Ltop Ad=2*hdif*WoLtop*Ltop As=2*hdif*WoLtop*Ltop Pd=4*hdif+2*WoLtop*Ltop Ps=4*hdif+2*WoLtop*Ltop Mode=1 Noise=yes _M=Mult_top 
I_Source:SRC4  biastop 0 Type="I_DC" Idc=2*Iin 
"n_33_mm":Mshiftbias2  biasshift biasshift 0 0 Length=Lshift Width=WoLshiftbias*Lshift Ad=2*hdif*WoLshiftbias*Lshift As=2*hdif*WoLshiftbias*Lshift Pd=4*hdif+2*WoLshiftbias*Lshift Ps=4*hdif+2*WoLshiftbias*Lshift Mode=1 Noise=yes _M=Mult_shiftbias 
I_Source:SRC5  N__88 biasshift Type="I_DC" Idc=Ishift 
"n_33_mm":Mcmfb3  N__42 N__89 N__90 0 Length=Lcmfb Width=WoLcmfb*Lcmfb Ad=2*hdif*WoLcmfb*Lcmfb As=2*hdif*WoLcmfb*Lcmfb Pd=4*hdif+2*WoLcmfb*Lcmfb Ps=4*hdif+2*WoLcmfb*Lcmfb Mode=1 Noise=yes _M=Mult_cmfb 
"n_33_mm":Mcmfb1  cmfb N__14 N__90 0 Length=Lcmfb Width=WoLcmfb*Lcmfb Ad=2*hdif*WoLcmfb*Lcmfb As=2*hdif*WoLcmfb*Lcmfb Pd=4*hdif+2*WoLcmfb*Lcmfb Ps=4*hdif+2*WoLcmfb*Lcmfb Mode=1 Noise=yes _M=Mult_cmfb 
"n_33_mm":Mcmfbbias  N__90 N__30 0 0 Length=Lcmfb Width=WoLcmfb*Lcmfb Ad=2*hdif*WoLcmfb*Lcmfb As=2*hdif*WoLcmfb*Lcmfb Pd=4*hdif+2*WoLcmfb*Lcmfb Ps=4*hdif+2*WoLcmfb*Lcmfb Mode=1 Noise=yes _M=Mult_cmfbbias 
"p_33_mm":Mcmfbmirr  cmfb cmfb N__88 N__88 Length=Lmirr Width=WoLmirr*Lmirr Ad=2*hdif*WoLmirr*Lmirr As=2*hdif*WoLmirr*Lmirr Pd=4*hdif+2*WoLmirr*Lmirr Ps=4*hdif+2*WoLmirr*Lmirr Mode=1 Noise=yes _M=Mult_cmfbmirr 
"p_33_mm":Mcmfbmirr1  N__42 N__42 N__88 N__88 Length=Lmirr Width=WoLmirr*Lmirr Ad=2*hdif*WoLmirr*Lmirr As=2*hdif*WoLmirr*Lmirr Pd=4*hdif+2*WoLmirr*Lmirr Ps=4*hdif+2*WoLmirr*Lmirr Mode=1 Noise=yes _M=Mult_cmfbmirr 
R:R5  outp N__14 R=10k Noise=yes 
R:R1  N__50 intp R=Rc Noise=yes 
R:R2  intm N__51 R=Rc Noise=yes 
R:R3  N__88 N__89 R=10k Noise=yes 
R:R4  N__89 0 R=10k Noise=yes 
R:R6  N__14 outm R=10k Noise=yes 
C:C1  N__51 outm C=Cc 
C:C2  N__50 outp C=Cc 
C:C8  outp N__14 C=0.5 pF 
C:C9  N__14 outm C=0.5 pF 
I_Source:SRC40  N__0 N__30 Type="I_DC" Idc=2*Icmfb 

GBW=100e6
Cl=10pF
fnd=4*GBW
Cc=Cl/3
Cn=Cc/3
hdif=0.26e-6
Mult_out=int(special)+1
Lout=Lmin
WoLout=20
WoLload=(out_Id/load_Id)*WoLout
Mult_shiftbias=Mult_shift
Mult_shift=5
WoLshift=10
WoLshiftbias=WoLshift
Lshift=Lmin
Lmin=0.34e-6
Lmirr=1e-6
WoLmirr=35
Mult_mirr=int(Icasc/mirr_Id)
Lcasctop=1e-6
WoLcasctop=35
Mult_casctop=int(Icasc/casctop_Id)
Lcasc=1e-6
WoLcasc=10
Mult_casc=int(Icasc/casc_Id)
Lbot=1e-6
WoLbot=10
Mult_bot=int((Iin+Icasc)/bot_Id)
Lin=1e-6
WoLin=10
Mult_in=int(gm1/in_gm)
out_Vt=0.618389
out_Cgs=1.3797e-14
out_Cdb=4.8545e-15
out_vov=0.2
out_gm=0.000650705
out_Id=8.18039e-05
load_vt=0.681244
load_vov=0.2
load_Id=2.31606e-05
special=A*(Cc+Cl)/(out_gm-A*(load_Cdb+out_Cdb))
normal=A*(Cc+Cl)/out_gm
load_Cdb=2.23102e-14
A=2*pi*Cn/Cc*fnd
shift_Id=1.23523e-05
shift_gm=0.000168003
shift_Cdb=2.23808e-15
Ishift=Mult_shift*shift_Id
gmshift=pshift*2*pi*(out_Cgs+2*shift_Cdb)
pshift=10*GBW
Iout=Mult_out*out_Id
Rc=300 tune{ 50 to 1000 by 50 }
bot_vt=0.657202
bot_vov=0.2
bot_gm=0.000276664
bot_Id=3.27164e-05
casc_vt=0.753352
casc_vov=0.2
casc_gm=0.000289642
casc_Id=3.32385e-05
in_vt=0.723715
in_vov=0.2
in_gm=6.91623e-05
in_Id=8.13356e-06
Ltop=1e-6
WoLtop=10
Mult_top=int((Mult_in*in_Id)/top_Id)
top_vt=0.723821
top_vov=0.2
top_gm=6.77199e-05
top_Id=7.92981e-06
gm1=GBW*2*pi*Cc
Icasc=2*Iin
Iin=Mult_in*in_Id
mirr_vt=0.722925
mirr_vov=0.2
mirr_gm=0.000238051
mirr_Id=2.78948e-05
casctop_vt=0.930336
casctop_vov=0.2
casctop_gm=0.000248284
casctop_Id=2.9279e-05
cmfbbias_vt=0.63886
cmfbbias_vov=0.2
cmfbbias_gm=0.00063275
cmfbbias_Id=7.95238e-05
cmfb_vt=0.748008
cmfb_vov=0.2
cmfb_gm=0.000682417
cmfb_Id=8.57489e-05
Lcmfb=Lmin
WoLcmfb=10
Clcmfb=0.5pF
gmcm=4*GBW*2*pi*Clcmfb
Mult_cmfb=int(gmcm/cmfb_gm)
Icmfb=Mult_cmfb*cmfb_Id
Mult_cmfbmirr=int(Icmfb/mirr_Id)
Mult_cmfbbias=int(Icmfb/cmfbbias_Id)
X=1.0

end OPAMP_v2_cleaned


VDD:Vdd  vdd Vdd=3.3 V 

OPAMP_v2_cleaned:OPAMP2  N__56 N__7 N__10 N__12 
OPAMP_v2_cleaned:OPAMP1  N__3 N__19 N__14 N__15 
C:Camp2  N__33 N__53 C=C1 
C:Camp1  N__49 N__54 C=C1 
C:Cint2  N__5 N__31 C=C2 
C:Cint1  N__55 N__24 C=C2 
C:C1  N__47 0 C=5.0 pF 
C:C2  N__41 0 C=5.0 pF 


V_Source:Vcommonmode  Vinc 0 Type="V_DC" Vdc=1.48 V SaveCurrent=0 
V_Source:Vcontrol  vcontrol 0 Type="V_DC" Vdc=0 V SaveCurrent=0 

#uselib "ckt" , "Balun4Port"
Balun4Port:BalunIN  Vind Vinc N__46 N__52 
#uselib "ckt" , "Balun4Port"
Balun4Port:BalunOUT  outd outc N__47 N__41 

"p_33_mm":Mampfb2  N__2  vcontrol N__18 vdd Length=L3 Width=W Ad=2*hdif*W As=2*hdif*W Pd=4*hdif+2*W Ps=4*hdif+2*W Mode=1 Noise=yes _M=1 
"p_33_mm":Min2     N__21 vcontrol N__4  vdd Length=L1 Width=W Ad=2*hdif*W As=2*hdif*W Pd=4*hdif+2*W Ps=4*hdif+2*W Mode=1 Noise=yes _M=1 
"p_33_mm":Min1     N__1  vcontrol N__34 vdd Length=L1 Width=W Ad=2*hdif*W As=2*hdif*W Pd=4*hdif+2*W Ps=4*hdif+2*W Mode=1 Noise=yes _M=1 
"p_33_mm":Mint1    N__26 vcontrol N__27 vdd Length=L4 Width=W Ad=2*hdif*W As=2*hdif*W Pd=4*hdif+2*W Ps=4*hdif+2*W Mode=1 Noise=yes _M=1 
"p_33_mm":Mint2    N__30 vcontrol N__8  vdd Length=L4 Width=W Ad=2*hdif*W As=2*hdif*W Pd=4*hdif+2*W Ps=4*hdif+2*W Mode=1 Noise=yes _M=1 
"p_33_mm":Mampfb1  N__6  vcontrol N__13 vdd Length=L3 Width=W Ad=2*hdif*W As=2*hdif*W Pd=4*hdif+2*W Ps=4*hdif+2*W Mode=1 Noise=yes _M=1 
"p_33_mm":Mfb1     N__50 vcontrol N__17 vdd Length=L2 Width=W Ad=2*hdif*W As=2*hdif*W Pd=4*hdif+2*W Ps=4*hdif+2*W Mode=1 Noise=yes _M=1 
"p_33_mm":Mfb2     N__48 vcontrol N__23 vdd Length=L2 Width=W Ad=2*hdif*W As=2*hdif*W Pd=4*hdif+2*W Ps=4*hdif+2*W Mode=1 Noise=yes _M=1 


Short:I_AMP2_p1p  N__5 N__56 Mode=0 SaveCurrent=yes 
Short:I_AMP2_p1m  N__55 N__7 Mode=0 SaveCurrent=yes 
Short:I_AMP2_p2p  N__31 N__12 Mode=0 SaveCurrent=yes 
Short:I_AMP2_p2m  N__24 N__10 Mode=0 SaveCurrent=yes 

Short:I_BLEED_p1p  N__49 N__13 Mode=0 SaveCurrent=yes 
Short:I_BLEED_p1m  N__33 N__18 Mode=0 SaveCurrent=yes 
Short:I_BLEED_p2p  N__54 N__6 Mode=0 SaveCurrent=yes 
Short:I_BLEED_p2m  N__53 N__2 Mode=0 SaveCurrent=yes 

Short:I_AMP1_p1p  N__33 N__3 Mode=0 SaveCurrent=yes 
Short:I_AMP1_p1m  N__49 N__19 Mode=0 SaveCurrent=yes 
Short:I_AMP1_p2p  N__53 N__15 Mode=0 SaveCurrent=yes 
Short:I_AMP1_p2m  N__54 N__14 Mode=0 SaveCurrent=yes 

Short:I_IN_p1p  N__25 N__4 Mode=0 SaveCurrent=yes 
Short:I_IN_p1m  N__22 N__34 Mode=0 SaveCurrent=yes 
Short:I_IN_p2p  N__33 N__21 Mode=0 SaveCurrent=yes 
Short:I_IN_p2m  N__49 N__1 Mode=0 SaveCurrent=yes 

Short:I_INT_p1p  N__53 N__8 Mode=0 SaveCurrent=yes 
Short:I_INT_p1m  N__54 N__27 Mode=0 SaveCurrent=yes 
Short:I_INT_p2p  N__5 N__30 Mode=0 SaveCurrent=yes 
Short:I_INT_p2m  N__55 N__26 Mode=0 SaveCurrent=yes 

Short:I_FB_p1p  N__49 N__17 Mode=0 SaveCurrent=yes 
Short:I_FB_p2p  N__31 N__50 Mode=0 SaveCurrent=yes 
Short:I_FB_p2m  N__24 N__48 Mode=0 SaveCurrent=yes 
Short:I_FB_p1m  N__33 N__23 Mode=0 SaveCurrent=yes 

Short:I_TOTAL_p1p  N__46 N__25 Mode=0 SaveCurrent=yes 
Short:I_TOTAL_p1m  N__52 N__22 Mode=0 SaveCurrent=yes 
Short:I_TOTAL_p2p  N__47 N__31 Mode=0 SaveCurrent=yes 
Short:I_TOTAL_p2m  N__41 N__24 Mode=0 SaveCurrent=yes 


R2=1/(w*C*sqrt(Bgain))
R4=Bgain*R2
R1=R2/Lgain
R3=Q*sqrt(R2*R4)
L=9.03e-007 tune{ 7.525e-007 to 2.2575e-006 by 1.505e-007 }
W=3e-6
G=-1e6
GBW=80e6
hdif=0.26e-6
Q=1
w=2*pi*0.5e6
Lgain=1
Bgain=1
C=5pF
C1=C
C2=C
L1=L
L2=L
L3=L
L4=L
Vin=0

#define TT TT
#ifndef inc_Z__ADS_umc_mmrfcmos18_circuit_models_umc18config_net
#define inc_Z__ADS_umc_mmrfcmos18_circuit_models_umc18config_net inc_Z__ADS_umc_mmrfcmos18_circuit_models_umc18config_net
#include "Z:\ADS\umc_mmrfcmos18\circuit\models\umc18config.net"
#endif
#undef TT




